[				{
                        "CMUM": "001",
                        "CPRO": "04",
                        "CUN": "0000000",
                        "DMUN50": "ABLA"
                },
                {
                        "CMUM": "002",
                        "CPRO": "04",
                        "CUN": "0000000",
                        "DMUN50": "ABRUCENA"
                },
                {
                        "CMUM": "003",
                        "CPRO": "04",
                        "CUN": "0000000",
                        "DMUN50": "ADRA"
                },
                {
                        "CMUM": "004",
                        "CPRO": "04",
                        "CUN": "0000000",
                        "DMUN50": "ALBÁNCHEZ"
                },
                {
                        "CMUM": "005",
                        "CPRO": "04",
                        "CUN": "0000000",
                        "DMUN50": "ALBOLODUY"
                },
                {
                        "CMUM": "006",
                        "CPRO": "04",
                        "CUN": "0000000",
                        "DMUN50": "ALBO_"
                },
                {
                        "CMUM": "007",
                        "CPRO": "04",
                        "CUN": "0000000",
                        "DMUN50": "ALC_LEA"
                },
                {
                        "CMUM": "008",
                        "CPRO": "04",
                        "CUN": "0000000",
                        "DMUN50": "ALCÓNTAR"
                },
                {
                        "CMUM": "009",
                        "CPRO": "04",
                        "CUN": "0000000",
                        "DMUN50": "ALCUDIA DE MONTEAGUD"
                },
                {
                        "CMUM": "010",
                        "CPRO": "04",
                        "CUN": "0000000",
                        "DMUN50": "AL_ABIA"
                },
                {
                        "CMUM": "011",
                        "CPRO": "04",
                        "CUN": "0000000",
                        "DMUN50": "ALHAMA DE ALMERÍA_"
                },
                {
                        "CMUM": "012",
                        "CPRO": "04",
                        "CUN": "0000000",
                        "DMUN50": "ALI_ÚN"
                },
                {
                        "CMUM": "013",
                        "CPRO": "04",
                        "CUN": "0000000",
                        "DMUN50": "ALMER_A"
                },
                {
                        "CMUM": "014",
                        "CPRO": "04",
                        "CUN": "0000000",
                        "DMUN50": "ALMÓC_TA"
                },
                {
                        "CMUM": "015",
                        "CPRO": "04",
                        "CUN": "0000000",
                        "DMUN50": "ALSODUX"
                },
                {
                        "CMUM": "016",
                        "CPRO": "04",
                        "CUN": "0000000",
                        "DMUN50": "A_TAS"
                },
                {
                        "CMUM": "017",
                        "CPRO": "04",
                        "CUN": "0000000",
                        "DMUN50": "A_BOLEAS"
                },
                {
                        "CMUM": "018",
                        "CPRO": "04",
                        "CUN": "0000000",
                        "DMUN50": "A_MUÑA DE ALMANZORA"
                },
                {
                        "CMUM": "019",
                        "CPRO": "04",
                        "CUN": "0000000",
                        "DMUN50": "BACARES"
                },
                {
                        "CMUM": "904",
                        "CPRO": "04",
                        "CUN": "0000000",
                        "DMUN50": "BALANEGRA"
                },
                {
                        "CMUM": "020",
                        "CPRO": "04",
                        "CUN": "0000000",
                        "DMUN50": "BAYÁRCAL"
                },
                {
                        "CMUM": "021",
                        "CPRO": "04",
                        "CUN": "0000000",
                        "DMUN50": "BAYARQUE"
                },
                {
                        "CMUM": "022",
                        "CPRO": "04",
                        "CUN": "0000000",
                        "DMUN50": "BÉDAR"
                },
                {
                        "CMUM": "023",
                        "CPRO": "04",
                        "CUN": "0000000",
                        "DMUN50": "BE_RES"
                },
                {
                        "CMUM": "024",
                        "CPRO": "04",
                        "CUN": "0000000",
                        "DMUN50": "BEN_HADUX"
                },
                {
                        "CMUM": "026",
                        "CPRO": "04",
                        "CUN": "0000000",
                        "DMUN50": "BENITAGLA"
                },
                {
                        "CMUM": "027",
                        "CPRO": "04",
                        "CUN": "0000000",
                        "DMUN50": "BENIZALÓN"
                },
                {
                        "CMUM": "028",
                        "CPRO": "04",
                        "CUN": "0000000",
                        "DMUN50": "BENTARIQUE"
                },
                {
                        "CMUM": "029",
                        "CPRO": "04",
                        "CUN": "0000000",
                        "DMUN50": "BERJA"
                },
                {
                        "CMUM": "030",
                        "CPRO": "04",
                        "CUN": "0000000",
                        "DMUN50": "CANJÁYAR"
                },
                {
                        "CMUM": "031",
                        "CPRO": "04",
                        "CUN": "0000000",
                        "DMUN50": "CANTORIA"
                },
                {
                        "CMUM": "032",
                        "CPRO": "04",
                        "CUN": "0000000",
                        "DMUN50": "CARBONERAS"
                },
                {
                        "CMUM": "033",
                        "CPRO": "04",
                        "CUN": "0000000",
                        "DMUN50": "CASTRO DE FILABRES"
                },
                {
                        "CMUM": "036",
                        "CPRO": "04",
                        "CUN": "0000000",
                        "DMUN50": "CHERC_S"
                },
                {
                        "CMUM": "037",
                        "CPRO": "04",
                        "CUN": "0000000",
                        "DMUN50": "CHIRIV_L"
                },
                {
                        "CMUM": "034",
                        "CPRO": "04",
                        "CUN": "0000000",
                        "DMUN50": "CÓBDAR"
                },
                {
                        "CMUM": "035",
                        "CPRO": "04",
                        "CUN": "0000000",
                        "DMUN50": "CUEVA_ DEL ALMANZORA"
                },
                {
                        "CMUM": "038",
                        "CPRO": "04",
                        "CUN": "0000000",
                        "DMUN50": "DALÍAS"
                },
                {
                        "CMUM": "902",
                        "CPRO": "04",
                        "CUN": "0000000",
                        "DMUN50": "EJIDO (EL)"
                },
                {
                        "CMUM": "041",
                        "CPRO": "04",
                        "CUN": "0000000",
                        "DMUN50": "ENI_"
                },
                {
                        "CMUM": "043",
                        "CPRO": "04",
                        "CUN": "0000000",
                        "DMUN50": "FE_IX"
                },
                {
                        "CMUM": "045",
                        "CPRO": "04",
                        "CUN": "0000000",
                        "DMUN50": "FIÑAN_"
                },
                {
                        "CMUM": "044",
                        "CPRO": "04",
                        "CUN": "0000000",
                        "DMUN50": "FINE_"
                },
                {
                        "CMUM": "046",
                        "CPRO": "04",
                        "CUN": "0000000",
                        "DMUN50": "FON_ÓN"
                },
                {
                        "CMUM": "047",
                        "CPRO": "04",
                        "CUN": "0000000",
                        "DMUN50": "G_DOR"
                },
                {
                        "CMUM": "048",
                        "CPRO": "04",
                        "CUN": "0000000",
                        "DMUN50": "GALLARDOS (LOS)"
                },
                {
                        "CMUM": "049",
                        "CPRO": "04",
                        "CUN": "0000000",
                        "DMUN50": "GARRUCHA"
                },
                {
                        "CMUM": "050",
                        "CPRO": "04",
                        "CUN": "0000000",
                        "DMUN50": "GÉRGAL"
                },
                {
                        "CMUM": "051",
                        "CPRO": "04",
                        "CUN": "0000000",
                        "DMUN50": "HUÉCIJA"
                },
                {
                        "CMUM": "052",
                        "CPRO": "04",
                        "CUN": "0000000",
                        "DMUN50": "HUÉRCAL DE ALMERÍA_"
                },
                {
                        "CMUM": "053",
                        "CPRO": "04",
                        "CUN": "0000000",
                        "DMUN50": "HUÉRCAL-_VERA"
                },
                {
                        "CMUM": "054",
                        "CPRO": "04",
                        "CUN": "0000000",
                        "DMUN50": "ILLA_"
                },
                {
                        "CMUM": "055",
                        "CPRO": "04",
                        "CUN": "0000000",
                        "DMUN50": "INSTIN_IÓN"
                },
                {
                        "CMUM": "056",
                        "CPRO": "04",
                        "CUN": "0000000",
                        "DMUN50": "LAROYA"
                },
                {
                        "CMUM": "057",
                        "CPRO": "04",
                        "CUN": "0000000",
                        "DMUN50": "LÁUJAR DE ANDARAX"
                },
                {
                        "CMUM": "058",
                        "CPRO": "04",
                        "CUN": "0000000",
                        "DMUN50": "L_JAR"
                },
                {
                        "CMUM": "059",
                        "CPRO": "04",
                        "CUN": "0000000",
                        "DMUN50": "LUBRÍN_"
                },
                {
                        "CMUM": "060",
                        "CPRO": "04",
                        "CUN": "0000000",
                        "DMUN50": "LUCAINENA DE LAS TORRES"
                },
                {
                        "CMUM": "061",
                        "CPRO": "04",
                        "CUN": "0000000",
                        "DMUN50": "LÚCAR"
                },
                {
                        "CMUM": "062",
                        "CPRO": "04",
                        "CUN": "0000000",
                        "DMUN50": "M_CAEL"
                },
                {
                        "CMUM": "063",
                        "CPRO": "04",
                        "CUN": "0000000",
                        "DMUN50": "MARÍA"
                },
                {
                        "CMUM": "064",
                        "CPRO": "04",
                        "CUN": "0000000",
                        "DMUN50": "MOJÁCAR"
                },
                {
                        "CMUM": "903",
                        "CPRO": "04",
                        "CUN": "0000000",
                        "DMUN50": "MOJON_RA (LA)"
                },
                {
                        "CMUM": "065",
                        "CPRO": "04",
                        "CUN": "0000000",
                        "DMUN50": "NACIMIENTO"
                },
                {
                        "CMUM": "066",
                        "CPRO": "04",
                        "CUN": "0000000",
                        "DMUN50": "NÍJAR"
                },
                {
                        "CMUM": "067",
                        "CPRO": "04",
                        "CUN": "0000000",
                        "DMUN50": "OHANES"
                },
                {
                        "CMUM": "068",
                        "CPRO": "04",
                        "CUN": "0000000",
                        "DMUN50": "OLULA DE CASTRO"
                },
                {
                        "CMUM": "069",
                        "CPRO": "04",
                        "CUN": "0000000",
                        "DMUN50": "OLULA DEL RÍO"
                },
                {
                        "CMUM": "070",
                        "CPRO": "04",
                        "CUN": "0000000",
                        "DMUN50": "O_IA"
                },
                {
                        "CMUM": "071",
                        "CPRO": "04",
                        "CUN": "0000000",
                        "DMUN50": "PADULES"
                },
                {
                        "CMUM": "072",
                        "CPRO": "04",
                        "CUN": "0000000",
                        "DMUN50": "PARTA_OA"
                },
                {
                        "CMUM": "073",
                        "CPRO": "04",
                        "CUN": "0000000",
                        "DMUN50": "PATERNA DEL RÍO"
                },
                {
                        "CMUM": "074",
                        "CPRO": "04",
                        "CUN": "0000000",
                        "DMUN50": "P_CHINA"
                },
                {
                        "CMUM": "075",
                        "CPRO": "04",
                        "CUN": "0000000",
                        "DMUN50": "PULP_"
                },
                {
                        "CMUM": "076",
                        "CPRO": "04",
                        "CUN": "0000000",
                        "DMUN50": "PURCHENA"
                },
                {
                        "CMUM": "077",
                        "CPRO": "04",
                        "CUN": "0000000",
                        "DMUN50": "RÁ_OL"
                },
                {
                        "CMUM": "078",
                        "CPRO": "04",
                        "CUN": "0000000",
                        "DMUN50": "RIOJ_"
                },
                {
                        "CMUM": "079",
                        "CPRO": "04",
                        "CUN": "0000000",
                        "DMUN50": "ROQUE_AS DE MAR"
                },
                {
                        "CMUM": "080",
                        "CPRO": "04",
                        "CUN": "0000000",
                        "DMUN50": "SANTA CRUZ DE MARCHENA"
                },
                {
                        "CMUM": "081",
                        "CPRO": "04",
                        "CUN": "0000000",
                        "DMUN50": "SANTA FE DE MONDÚJAR"
                },
                {
                        "CMUM": "082",
                        "CPRO": "04",
                        "CUN": "0000000",
                        "DMUN50": "SENÉS_"
                },
                {
                        "CMUM": "083",
                        "CPRO": "04",
                        "CUN": "0000000",
                        "DMUN50": "SERÓN"
                },
                {
                        "CMUM": "084",
                        "CPRO": "04",
                        "CUN": "0000000",
                        "DMUN50": "SI_RRO"
                },
                {
                        "CMUM": "085",
                        "CPRO": "04",
                        "CUN": "0000000",
                        "DMUN50": "SOM_NTÍN"
                },
                {
                        "CMUM": "086",
                        "CPRO": "04",
                        "CUN": "0000000",
                        "DMUN50": "S_RBAS"
                },
                {
                        "CMUM": "087",
                        "CPRO": "04",
                        "CUN": "0000000",
                        "DMUN50": "SUFLÍ"
                },
                {
                        "CMUM": "088",
                        "CPRO": "04",
                        "CUN": "0000000",
                        "DMUN50": "TABERNAS"
                },
                {
                        "CMUM": "089",
                        "CPRO": "04",
                        "CUN": "0000000",
                        "DMUN50": "TABERNO"
                },
                {
                        "CMUM": "090",
                        "CPRO": "04",
                        "CUN": "0000000",
                        "DMUN50": "TAHAL"
                },
                {
                        "CMUM": "091",
                        "CPRO": "04",
                        "CUN": "0000000",
                        "DMUN50": "TERQU_"
                },
                {
                        "CMUM": "092",
                        "CPRO": "04",
                        "CUN": "0000000",
                        "DMUN50": "TÍJO_A"
                },
                {
                        "CMUM": "901",
                        "CPRO": "04",
                        "CUN": "0000000",
                        "DMUN50": "TRES VILLAS (LAS)"
                },
                {
                        "CMUM": "093",
                        "CPRO": "04",
                        "CUN": "0000000",
                        "DMUN50": "TURR_"
                },
                {
                        "CMUM": "094",
                        "CPRO": "04",
                        "CUN": "0000000",
                        "DMUN50": "TURRIL_AS"
                },
                {
                        "CMUM": "095",
                        "CPRO": "04",
                        "CUN": "0000000",
                        "DMUN50": "U_EILA DEL CAMPO"
                },
                {
                        "CMUM": "096",
                        "CPRO": "04",
                        "CUN": "0000000",
                        "DMUN50": "URRÁCAL"
                },
                {
                        "CMUM": "097",
                        "CPRO": "04",
                        "CUN": "0000000",
                        "DMUN50": "VELEF_QUE"
                },
                {
                        "CMUM": "098",
                        "CPRO": "04",
                        "CUN": "0000000",
                        "DMUN50": "VÉLEZ-BLANCO"
                },
                {
                        "CMUM": "099",
                        "CPRO": "04",
                        "CUN": "0000000",
                        "DMUN50": "VÉLEZ-RUBI_"
                },
                {
                        "CMUM": "100",
                        "CPRO": "04",
                        "CUN": "0000000",
                        "DMUN50": "VERA"
                },
                {
                        "CMUM": "101",
                        "CPRO": "04",
                        "CUN": "0000000",
                        "DMUN50": "V_ATOR"
                },
                {
                        "CMUM": "102",
                        "CPRO": "04",
                        "CUN": "0000000",
                        "DMUN50": "VÍC_R"
                },
                {
                        "CMUM": "103",
                        "CPRO": "04",
                        "CUN": "0000000",
                        "DMUN50": "ZUR_ENA"
                },
                {
                        "CMUM": "001",
                        "CPRO": "11",
                        "CUN": "0000000",
                        "DMUN50": "ALCALÁ DE LOS GAZULES"
                },
                {
                        "CMUM": "002",
                        "CPRO": "11",
                        "CUN": "0000000",
                        "DMUN50": "ALCALÁ DEL V_LLE"
                },
                {
                        "CMUM": "003",
                        "CPRO": "11",
                        "CUN": "0000000",
                        "DMUN50": "ALGAR"
                },
                {
                        "CMUM": "004",
                        "CPRO": "11",
                        "CUN": "0000000",
                        "DMUN50": "ALG_CIRAS"
                },
                {
                        "CMUM": "005",
                        "CPRO": "11",
                        "CUN": "0000000",
                        "DMUN50": "ALGODONA_ES"
                },
                {
                        "CMUM": "006",
                        "CPRO": "11",
                        "CUN": "0000000",
                        "DMUN50": "ARCOS DE_LA FRONTERA"
                },
                {
                        "CMUM": "007",
                        "CPRO": "11",
                        "CUN": "0000000",
                        "DMUN50": "BA_BATE"
                },
                {
                        "CMUM": "008",
                        "CPRO": "11",
                        "CUN": "0000000",
                        "DMUN50": "BARRIOS (LOS_"
                },
                {
                        "CMUM": "901",
                        "CPRO": "11",
                        "CUN": "0000000",
                        "DMUN50": "BENALUP-CASAS VIEJAS"
                },
                {
                        "CMUM": "009",
                        "CPRO": "11",
                        "CUN": "0000000",
                        "DMUN50": "B_NAOCAZ"
                },
                {
                        "CMUM": "010",
                        "CPRO": "11",
                        "CUN": "0000000",
                        "DMUN50": "BORN_S"
                },
                {
                        "CMUM": "011",
                        "CPRO": "11",
                        "CUN": "0000000",
                        "DMUN50": "BOSQUE (_L)"
                },
                {
                        "CMUM": "012",
                        "CPRO": "11",
                        "CUN": "0000000",
                        "DMUN50": "CÁDI_"
                },
                {
                        "CMUM": "013",
                        "CPRO": "11",
                        "CUN": "0000000",
                        "DMUN50": "CASTE_LAR DE LA FRONTERA"
                },
                {
                        "CMUM": "015",
                        "CPRO": "11",
                        "CUN": "0000000",
                        "DMUN50": "CHICLANA _E LA FRONTERA"
                },
                {
                        "CMUM": "016",
                        "CPRO": "11",
                        "CUN": "0000000",
                        "DMUN50": "CHIPIONA"
                },
                {
                        "CMUM": "014",
                        "CPRO": "11",
                        "CUN": "0000000",
                        "DMUN50": "CONIL DE LA FRONTERA"
                },
                {
                        "CMUM": "017",
                        "CPRO": "11",
                        "CUN": "0000000",
                        "DMUN50": "E_PERA"
                },
                {
                        "CMUM": "018",
                        "CPRO": "11",
                        "CUN": "0000000",
                        "DMUN50": "GASTOR _EL)"
                },
                {
                        "CMUM": "019",
                        "CPRO": "11",
                        "CUN": "0000000",
                        "DMUN50": "GRA_ALEMA"
                },
                {
                        "CMUM": "020",
                        "CPRO": "11",
                        "CUN": "0000000",
                        "DMUN50": "JEREZ DE_LA FRONTERA"
                },
                {
                        "CMUM": "021",
                        "CPRO": "11",
                        "CUN": "0000000",
                        "DMUN50": "JIMENA DE LA FRONTERA"
                },
                {
                        "CMUM": "022",
                        "CPRO": "11",
                        "CUN": "0000000",
                        "DMUN50": "LÍN_A DE LA CONCEPCIÓN (LA)"
                },
                {
                        "CMUM": "023",
                        "CPRO": "11",
                        "CUN": "0000000",
                        "DMUN50": "MEDINA-SIDONIA"
                },
                {
                        "CMUM": "024",
                        "CPRO": "11",
                        "CUN": "0000000",
                        "DMUN50": "OLVERA"
                },
                {
                        "CMUM": "025",
                        "CPRO": "11",
                        "CUN": "0000000",
                        "DMUN50": "PATERNA DE RIVERA"
                },
                {
                        "CMUM": "026",
                        "CPRO": "11",
                        "CUN": "0000000",
                        "DMUN50": "PR_DO DEL REY"
                },
                {
                        "CMUM": "027",
                        "CPRO": "11",
                        "CUN": "0000000",
                        "DMUN50": "PUERTO DE SANTA MARÍA (EL)"
                },
                {
                        "CMUM": "028",
                        "CPRO": "11",
                        "CUN": "0000000",
                        "DMUN50": "PUERT_ REAL"
                },
                {
                        "CMUM": "029",
                        "CPRO": "11",
                        "CUN": "0000000",
                        "DMUN50": "PUERTO SERRANO"
                },
                {
                        "CMUM": "030",
                        "CPRO": "11",
                        "CUN": "0000000",
                        "DMUN50": "ROTA"
                },
                {
                        "CMUM": "031",
                        "CPRO": "11",
                        "CUN": "0000000",
                        "DMUN50": "SAN _ERNANDO"
                },
                {
                        "CMUM": "902",
                        "CPRO": "11",
                        "CUN": "0000000",
                        "DMUN50": "SAN JOS_ DEL VALLE"
                },
                {
                        "CMUM": "033",
                        "CPRO": "11",
                        "CUN": "0000000",
                        "DMUN50": "SAN ROQ_E"
                },
                {
                        "CMUM": "032",
                        "CPRO": "11",
                        "CUN": "0000000",
                        "DMUN50": "SANLÚCAR DE BARRAMEDA"
                },
                {
                        "CMUM": "034",
                        "CPRO": "11",
                        "CUN": "0000000",
                        "DMUN50": "SETENIL DE LAS BODEGAS"
                },
                {
                        "CMUM": "035",
                        "CPRO": "11",
                        "CUN": "0000000",
                        "DMUN50": "T_RIFA"
                },
                {
                        "CMUM": "036",
                        "CPRO": "11",
                        "CUN": "0000000",
                        "DMUN50": "TORRE ALHÁQUIME"
                },
                {
                        "CMUM": "037",
                        "CPRO": "11",
                        "CUN": "0000000",
                        "DMUN50": "TREBUJ_NA"
                },
                {
                        "CMUM": "038",
                        "CPRO": "11",
                        "CUN": "0000000",
                        "DMUN50": "UBR_QUE"
                },
                {
                        "CMUM": "039",
                        "CPRO": "11",
                        "CUN": "0000000",
                        "DMUN50": "VEJER DE LA FRONT_RA"
                },
                {
                        "CMUM": "040",
                        "CPRO": "11",
                        "CUN": "0000000",
                        "DMUN50": "VILLALUENGA D_L ROSARIO"
                },
                {
                        "CMUM": "041",
                        "CPRO": "11",
                        "CUN": "0000000",
                        "DMUN50": "VILLAMARTÍN"
                },
                {
                        "CMUM": "042",
                        "CPRO": "11",
                        "CUN": "0000000",
                        "DMUN50": "ZAHARA"
                },
                {
                        "CMUM": "001",
                        "CPRO": "14",
                        "CUN": "0000000",
                        "DMUN50": "ADA_UZ"
                },
                {
                        "CMUM": "002",
                        "CPRO": "14",
                        "CUN": "0000000",
                        "DMUN50": "AGUILAR DE_LA FRONTERA"
                },
                {
                        "CMUM": "003",
                        "CPRO": "14",
                        "CUN": "0000000",
                        "DMUN50": "ALCARACEJOS"
                },
                {
                        "CMUM": "004",
                        "CPRO": "14",
                        "CUN": "0000000",
                        "DMUN50": "ALMEDINILLA"
                },
                {
                        "CMUM": "005",
                        "CPRO": "14",
                        "CUN": "0000000",
                        "DMUN50": "ALMODÓVAR DEL RÍO"
                },
                {
                        "CMUM": "006",
                        "CPRO": "14",
                        "CUN": "0000000",
                        "DMUN50": "AÑOR_"
                },
                {
                        "CMUM": "007",
                        "CPRO": "14",
                        "CUN": "0000000",
                        "DMUN50": "BAENA"
                },
                {
                        "CMUM": "008",
                        "CPRO": "14",
                        "CUN": "0000000",
                        "DMUN50": "BELAL_ÁZAR"
                },
                {
                        "CMUM": "009",
                        "CPRO": "14",
                        "CUN": "0000000",
                        "DMUN50": "BELMEZ"
                },
                {
                        "CMUM": "010",
                        "CPRO": "14",
                        "CUN": "0000000",
                        "DMUN50": "BENAMEJÍ"
                },
                {
                        "CMUM": "011",
                        "CPRO": "14",
                        "CUN": "0000000",
                        "DMUN50": "BLÁZQUEZ (LO_)"
                },
                {
                        "CMUM": "012",
                        "CPRO": "14",
                        "CUN": "0000000",
                        "DMUN50": "BUJALAN_E"
                },
                {
                        "CMUM": "013",
                        "CPRO": "14",
                        "CUN": "0000000",
                        "DMUN50": "CA_RA"
                },
                {
                        "CMUM": "014",
                        "CPRO": "14",
                        "CUN": "0000000",
                        "DMUN50": "CAÑETE _E LAS TORRES"
                },
                {
                        "CMUM": "015",
                        "CPRO": "14",
                        "CUN": "0000000",
                        "DMUN50": "CARCABUEY"
                },
                {
                        "CMUM": "016",
                        "CPRO": "14",
                        "CUN": "0000000",
                        "DMUN50": "CARDE_A"
                },
                {
                        "CMUM": "017",
                        "CPRO": "14",
                        "CUN": "0000000",
                        "DMUN50": "CARLOTA (LA)"
                },
                {
                        "CMUM": "018",
                        "CPRO": "14",
                        "CUN": "0000000",
                        "DMUN50": "CARPIO (EL)"
                },
                {
                        "CMUM": "019",
                        "CPRO": "14",
                        "CUN": "0000000",
                        "DMUN50": "CASTRO_DEL RÍO"
                },
                {
                        "CMUM": "020",
                        "CPRO": "14",
                        "CUN": "0000000",
                        "DMUN50": "CONQUISTA"
                },
                {
                        "CMUM": "021",
                        "CPRO": "14",
                        "CUN": "0000000",
                        "DMUN50": "CÓRDOBA"
                },
                {
                        "CMUM": "022",
                        "CPRO": "14",
                        "CUN": "0000000",
                        "DMUN50": "DOÑA MENCÍA_"
                },
                {
                        "CMUM": "023",
                        "CPRO": "14",
                        "CUN": "0000000",
                        "DMUN50": "DOS TORRES"
                },
                {
                        "CMUM": "024",
                        "CPRO": "14",
                        "CUN": "0000000",
                        "DMUN50": "ENCINAS REAL_S"
                },
                {
                        "CMUM": "025",
                        "CPRO": "14",
                        "CUN": "0000000",
                        "DMUN50": "ESPEJ_"
                },
                {
                        "CMUM": "026",
                        "CPRO": "14",
                        "CUN": "0000000",
                        "DMUN50": "ES_IEL"
                },
                {
                        "CMUM": "027",
                        "CPRO": "14",
                        "CUN": "0000000",
                        "DMUN50": "FERNÁN-NÚÑEZ"
                },
                {
                        "CMUM": "028",
                        "CPRO": "14",
                        "CUN": "0000000",
                        "DMUN50": "FUENT_ LA LANCHA"
                },
                {
                        "CMUM": "029",
                        "CPRO": "14",
                        "CUN": "0000000",
                        "DMUN50": "FUEN_E OBEJUNA"
                },
                {
                        "CMUM": "030",
                        "CPRO": "14",
                        "CUN": "0000000",
                        "DMUN50": "FUENTE PA_MERA"
                },
                {
                        "CMUM": "031",
                        "CPRO": "14",
                        "CUN": "0000000",
                        "DMUN50": "FUENTE-TÓJAR"
                },
                {
                        "CMUM": "032",
                        "CPRO": "14",
                        "CUN": "0000000",
                        "DMUN50": "GRANJUELA _LA)"
                },
                {
                        "CMUM": "033",
                        "CPRO": "14",
                        "CUN": "0000000",
                        "DMUN50": "GUADALCÁZAR"
                },
                {
                        "CMUM": "034",
                        "CPRO": "14",
                        "CUN": "0000000",
                        "DMUN50": "GU_JO (EL)"
                },
                {
                        "CMUM": "035",
                        "CPRO": "14",
                        "CUN": "0000000",
                        "DMUN50": "HINOJOSA DEL DUQUE"
                },
                {
                        "CMUM": "036",
                        "CPRO": "14",
                        "CUN": "0000000",
                        "DMUN50": "HORNACHUELOS"
                },
                {
                        "CMUM": "037",
                        "CPRO": "14",
                        "CUN": "0000000",
                        "DMUN50": "IZNÁJAR"
                },
                {
                        "CMUM": "038",
                        "CPRO": "14",
                        "CUN": "0000000",
                        "DMUN50": "LUCENA"
                },
                {
                        "CMUM": "039",
                        "CPRO": "14",
                        "CUN": "0000000",
                        "DMUN50": "LUQUE"
                },
                {
                        "CMUM": "040",
                        "CPRO": "14",
                        "CUN": "0000000",
                        "DMUN50": "MONTALBÁN DE CÓRDOBA"
                },
                {
                        "CMUM": "041",
                        "CPRO": "14",
                        "CUN": "0000000",
                        "DMUN50": "MONTEMAYOR"
                },
                {
                        "CMUM": "042",
                        "CPRO": "14",
                        "CUN": "0000000",
                        "DMUN50": "M_NTILLA"
                },
                {
                        "CMUM": "043",
                        "CPRO": "14",
                        "CUN": "0000000",
                        "DMUN50": "MO_TORO"
                },
                {
                        "CMUM": "044",
                        "CPRO": "14",
                        "CUN": "0000000",
                        "DMUN50": "MONT_RQUE"
                },
                {
                        "CMUM": "045",
                        "CPRO": "14",
                        "CUN": "0000000",
                        "DMUN50": "MORILES"
                },
                {
                        "CMUM": "046",
                        "CPRO": "14",
                        "CUN": "0000000",
                        "DMUN50": "NUEVA CARTEYA"
                },
                {
                        "CMUM": "047",
                        "CPRO": "14",
                        "CUN": "0000000",
                        "DMUN50": "OBEJO"
                },
                {
                        "CMUM": "048",
                        "CPRO": "14",
                        "CUN": "0000000",
                        "DMUN50": "PALENCIANA"
                },
                {
                        "CMUM": "049",
                        "CPRO": "14",
                        "CUN": "0000000",
                        "DMUN50": "PALMA DEL RÍO"
                },
                {
                        "CMUM": "050",
                        "CPRO": "14",
                        "CUN": "0000000",
                        "DMUN50": "PEDRO ABAD"
                },
                {
                        "CMUM": "051",
                        "CPRO": "14",
                        "CUN": "0000000",
                        "DMUN50": "PEDROCHE"
                },
                {
                        "CMUM": "052",
                        "CPRO": "14",
                        "CUN": "0000000",
                        "DMUN50": "PEÑARROYA-PUEBLONUEVO"
                },
                {
                        "CMUM": "053",
                        "CPRO": "14",
                        "CUN": "0000000",
                        "DMUN50": "POSADAS"
                },
                {
                        "CMUM": "054",
                        "CPRO": "14",
                        "CUN": "0000000",
                        "DMUN50": "POZOBLANCO"
                },
                {
                        "CMUM": "055",
                        "CPRO": "14",
                        "CUN": "0000000",
                        "DMUN50": "PRIEGO DE CÓR_OBA"
                },
                {
                        "CMUM": "056",
                        "CPRO": "14",
                        "CUN": "0000000",
                        "DMUN50": "PUENT_ GENIL"
                },
                {
                        "CMUM": "057",
                        "CPRO": "14",
                        "CUN": "0000000",
                        "DMUN50": "RAMBL_ (LA)"
                },
                {
                        "CMUM": "058",
                        "CPRO": "14",
                        "CUN": "0000000",
                        "DMUN50": "R_TE"
                },
                {
                        "CMUM": "059",
                        "CPRO": "14",
                        "CUN": "0000000",
                        "DMUN50": "SAN SEBASTIÁN DE LOS BALLESTER_S"
                },
                {
                        "CMUM": "061",
                        "CPRO": "14",
                        "CUN": "0000000",
                        "DMUN50": "SANTA EUFEMIA"
                },
                {
                        "CMUM": "060",
                        "CPRO": "14",
                        "CUN": "0000000",
                        "DMUN50": "SANTAELLA"
                },
                {
                        "CMUM": "062",
                        "CPRO": "14",
                        "CUN": "0000000",
                        "DMUN50": "TORRECAMPO"
                },
                {
                        "CMUM": "063",
                        "CPRO": "14",
                        "CUN": "0000000",
                        "DMUN50": "VALENZUELA"
                },
                {
                        "CMUM": "064",
                        "CPRO": "14",
                        "CUN": "0000000",
                        "DMUN50": "VALSEQ_ILLO"
                },
                {
                        "CMUM": "065",
                        "CPRO": "14",
                        "CUN": "0000000",
                        "DMUN50": "VICTORIA (LA)"
                },
                {
                        "CMUM": "066",
                        "CPRO": "14",
                        "CUN": "0000000",
                        "DMUN50": "VILLA DEL RÍO"
                },
                {
                        "CMUM": "067",
                        "CPRO": "14",
                        "CUN": "0000000",
                        "DMUN50": "VILLAFRANCA DE CÓRDOBA"
                },
                {
                        "CMUM": "068",
                        "CPRO": "14",
                        "CUN": "0000000",
                        "DMUN50": "VILLA_ARTA"
                },
                {
                        "CMUM": "069",
                        "CPRO": "14",
                        "CUN": "0000000",
                        "DMUN50": "VILLANUEVA DE CÓRDOBA"
                },
                {
                        "CMUM": "070",
                        "CPRO": "14",
                        "CUN": "0000000",
                        "DMUN50": "VILLANUEVA DEL DUQUE"
                },
                {
                        "CMUM": "071",
                        "CPRO": "14",
                        "CUN": "0000000",
                        "DMUN50": "VILLANUEVA DEL REY"
                },
                {
                        "CMUM": "072",
                        "CPRO": "14",
                        "CUN": "0000000",
                        "DMUN50": "VILLA_ALTO"
                },
                {
                        "CMUM": "073",
                        "CPRO": "14",
                        "CUN": "0000000",
                        "DMUN50": "VILL_VICIOSA DE CÓRDOBA"
                },
                {
                        "CMUM": "074",
                        "CPRO": "14",
                        "CUN": "0000000",
                        "DMUN50": "VISO (EL)"
                },
                {
                        "CMUM": "075",
                        "CPRO": "14",
                        "CUN": "0000000",
                        "DMUN50": "ZUHEROS"
                },
                {
                        "CMUM": "001",
                        "CPRO": "18",
                        "CUN": "0000000",
                        "DMUN50": "AGRÓN"
                },
                {
                        "CMUM": "002",
                        "CPRO": "18",
                        "CUN": "0000000",
                        "DMUN50": "ALAMEDIL_A"
                },
                {
                        "CMUM": "003",
                        "CPRO": "18",
                        "CUN": "0000000",
                        "DMUN50": "ALBOLOTE"
                },
                {
                        "CMUM": "004",
                        "CPRO": "18",
                        "CUN": "0000000",
                        "DMUN50": "ALBONDÓN"
                },
                {
                        "CMUM": "005",
                        "CPRO": "18",
                        "CUN": "0000000",
                        "DMUN50": "ALBUÑÁN"
                },
                {
                        "CMUM": "006",
                        "CPRO": "18",
                        "CUN": "0000000",
                        "DMUN50": "ALBUÑOL"
                },
                {
                        "CMUM": "007",
                        "CPRO": "18",
                        "CUN": "0000000",
                        "DMUN50": "ALBUÑUELAS"
                },
                {
                        "CMUM": "010",
                        "CPRO": "18",
                        "CUN": "0000000",
                        "DMUN50": "ALDEIRE"
                },
                {
                        "CMUM": "011",
                        "CPRO": "18",
                        "CUN": "0000000",
                        "DMUN50": "ALFACAR"
                },
                {
                        "CMUM": "012",
                        "CPRO": "18",
                        "CUN": "0000000",
                        "DMUN50": "ALGARINEJO"
                },
                {
                        "CMUM": "013",
                        "CPRO": "18",
                        "CUN": "0000000",
                        "DMUN50": "ALHAMA DE _RANADA"
                },
                {
                        "CMUM": "014",
                        "CPRO": "18",
                        "CUN": "0000000",
                        "DMUN50": "ALHENDÍN"
                },
                {
                        "CMUM": "015",
                        "CPRO": "18",
                        "CUN": "0000000",
                        "DMUN50": "AL_CÚN DE ORTEGA"
                },
                {
                        "CMUM": "016",
                        "CPRO": "18",
                        "CUN": "0000000",
                        "DMUN50": "ALMEGÍ_AR"
                },
                {
                        "CMUM": "017",
                        "CPRO": "18",
                        "CUN": "0000000",
                        "DMUN50": "ALMUÑ_CAR"
                },
                {
                        "CMUM": "904",
                        "CPRO": "18",
                        "CUN": "0000000",
                        "DMUN50": "ALPUJARRA _E LA SIERRA"
                },
                {
                        "CMUM": "018",
                        "CPRO": "18",
                        "CUN": "0000000",
                        "DMUN50": "ALQUI_E"
                },
                {
                        "CMUM": "020",
                        "CPRO": "18",
                        "CUN": "0000000",
                        "DMUN50": "ARENAS DEL REY"
                },
                {
                        "CMUM": "021",
                        "CPRO": "18",
                        "CUN": "0000000",
                        "DMUN50": "ARMILLA"
                },
                {
                        "CMUM": "022",
                        "CPRO": "18",
                        "CUN": "0000000",
                        "DMUN50": "A_ARFE"
                },
                {
                        "CMUM": "023",
                        "CPRO": "18",
                        "CUN": "0000000",
                        "DMUN50": "B_ZA"
                },
                {
                        "CMUM": "024",
                        "CPRO": "18",
                        "CUN": "0000000",
                        "DMUN50": "BEAS DE GRANADA"
                },
                {
                        "CMUM": "025",
                        "CPRO": "18",
                        "CUN": "0000000",
                        "DMUN50": "BEAS DE GUAD_X"
                },
                {
                        "CMUM": "027",
                        "CPRO": "18",
                        "CUN": "0000000",
                        "DMUN50": "BE_ALÚA"
                },
                {
                        "CMUM": "028",
                        "CPRO": "18",
                        "CUN": "0000000",
                        "DMUN50": "BENALÚA DE LAS VILLAS"
                },
                {
                        "CMUM": "029",
                        "CPRO": "18",
                        "CUN": "0000000",
                        "DMUN50": "BENAMAUR_L"
                },
                {
                        "CMUM": "030",
                        "CPRO": "18",
                        "CUN": "0000000",
                        "DMUN50": "BÉRCHULES"
                },
                {
                        "CMUM": "032",
                        "CPRO": "18",
                        "CUN": "0000000",
                        "DMUN50": "BUBIÓN"
                },
                {
                        "CMUM": "033",
                        "CPRO": "18",
                        "CUN": "0000000",
                        "DMUN50": "BUSQUÍSTAR"
                },
                {
                        "CMUM": "034",
                        "CPRO": "18",
                        "CUN": "0000000",
                        "DMUN50": "CACÍN"
                },
                {
                        "CMUM": "035",
                        "CPRO": "18",
                        "CUN": "0000000",
                        "DMUN50": "CÁDIAR"
                },
                {
                        "CMUM": "036",
                        "CPRO": "18",
                        "CUN": "0000000",
                        "DMUN50": "CÁJAR"
                },
                {
                        "CMUM": "114",
                        "CPRO": "18",
                        "CUN": "0000000",
                        "DMUN50": "CALAHORRA (LA)"
                },
                {
                        "CMUM": "037",
                        "CPRO": "18",
                        "CUN": "0000000",
                        "DMUN50": "CALICASAS"
                },
                {
                        "CMUM": "038",
                        "CPRO": "18",
                        "CUN": "0000000",
                        "DMUN50": "CAMPOTÉJAR"
                },
                {
                        "CMUM": "040",
                        "CPRO": "18",
                        "CUN": "0000000",
                        "DMUN50": "CÁÑAR"
                },
                {
                        "CMUM": "039",
                        "CPRO": "18",
                        "CUN": "0000000",
                        "DMUN50": "CANI_ES"
                },
                {
                        "CMUM": "042",
                        "CPRO": "18",
                        "CUN": "0000000",
                        "DMUN50": "CAPI_EIRA"
                },
                {
                        "CMUM": "043",
                        "CPRO": "18",
                        "CUN": "0000000",
                        "DMUN50": "C_RATAUNAS"
                },
                {
                        "CMUM": "044",
                        "CPRO": "18",
                        "CUN": "0000000",
                        "DMUN50": "CÁSTA_AS"
                },
                {
                        "CMUM": "045",
                        "CPRO": "18",
                        "CUN": "0000000",
                        "DMUN50": "CASTILL_JAR"
                },
                {
                        "CMUM": "046",
                        "CPRO": "18",
                        "CUN": "0000000",
                        "DMUN50": "CASTRIL"
                },
                {
                        "CMUM": "047",
                        "CPRO": "18",
                        "CUN": "0000000",
                        "DMUN50": "CE_ES DE LA VEGA"
                },
                {
                        "CMUM": "059",
                        "CPRO": "18",
                        "CUN": "0000000",
                        "DMUN50": "C_AUCHINA"
                },
                {
                        "CMUM": "061",
                        "CPRO": "18",
                        "CUN": "0000000",
                        "DMUN50": "CHI_ENEAS"
                },
                {
                        "CMUM": "062",
                        "CPRO": "18",
                        "CUN": "0000000",
                        "DMUN50": "CHURRIANA DE_LA VEGA"
                },
                {
                        "CMUM": "048",
                        "CPRO": "18",
                        "CUN": "0000000",
                        "DMUN50": "CIJUELA"
                },
                {
                        "CMUM": "049",
                        "CPRO": "18",
                        "CUN": "0000000",
                        "DMUN50": "COGOLLOS DE GUADI_"
                },
                {
                        "CMUM": "050",
                        "CPRO": "18",
                        "CUN": "0000000",
                        "DMUN50": "COGOLLOS DE LA VEGA"
                },
                {
                        "CMUM": "051",
                        "CPRO": "18",
                        "CUN": "0000000",
                        "DMUN50": "COLOMERA"
                },
                {
                        "CMUM": "053",
                        "CPRO": "18",
                        "CUN": "0000000",
                        "DMUN50": "CORTES D_ BAZA"
                },
                {
                        "CMUM": "054",
                        "CPRO": "18",
                        "CUN": "0000000",
                        "DMUN50": "CORTE_ Y GRAENA"
                },
                {
                        "CMUM": "912",
                        "CPRO": "18",
                        "CUN": "0000000",
                        "DMUN50": "CUEVAS DEL CAMPO"
                },
                {
                        "CMUM": "056",
                        "CPRO": "18",
                        "CUN": "0000000",
                        "DMUN50": "CÚLL_R"
                },
                {
                        "CMUM": "057",
                        "CPRO": "18",
                        "CUN": "0000000",
                        "DMUN50": "CÚLLAR VEGA"
                },
                {
                        "CMUM": "063",
                        "CPRO": "18",
                        "CUN": "0000000",
                        "DMUN50": "DARR_"
                },
                {
                        "CMUM": "064",
                        "CPRO": "18",
                        "CUN": "0000000",
                        "DMUN50": "DEHESAS DE GUADIX"
                },
                {
                        "CMUM": "065",
                        "CPRO": "18",
                        "CUN": "0000000",
                        "DMUN50": "DEHESAS VIEJAS"
                },
                {
                        "CMUM": "066",
                        "CPRO": "18",
                        "CUN": "0000000",
                        "DMUN50": "DEIFONT_S"
                },
                {
                        "CMUM": "067",
                        "CPRO": "18",
                        "CUN": "0000000",
                        "DMUN50": "DIEZMA"
                },
                {
                        "CMUM": "068",
                        "CPRO": "18",
                        "CUN": "0000000",
                        "DMUN50": "DÍLAR"
                },
                {
                        "CMUM": "069",
                        "CPRO": "18",
                        "CUN": "0000000",
                        "DMUN50": "DÓLA_"
                },
                {
                        "CMUM": "915",
                        "CPRO": "18",
                        "CUN": "0000000",
                        "DMUN50": "DOMINGO PÉREZ DE GRANADA"
                },
                {
                        "CMUM": "070",
                        "CPRO": "18",
                        "CUN": "0000000",
                        "DMUN50": "DÚDAR"
                },
                {
                        "CMUM": "071",
                        "CPRO": "18",
                        "CUN": "0000000",
                        "DMUN50": "DÚRCA_"
                },
                {
                        "CMUM": "072",
                        "CPRO": "18",
                        "CUN": "0000000",
                        "DMUN50": "ESCÚZAR"
                },
                {
                        "CMUM": "074",
                        "CPRO": "18",
                        "CUN": "0000000",
                        "DMUN50": "FERRE_RA"
                },
                {
                        "CMUM": "076",
                        "CPRO": "18",
                        "CUN": "0000000",
                        "DMUN50": "FONELAS"
                },
                {
                        "CMUM": "078",
                        "CPRO": "18",
                        "CUN": "0000000",
                        "DMUN50": "FREILA"
                },
                {
                        "CMUM": "079",
                        "CPRO": "18",
                        "CUN": "0000000",
                        "DMUN50": "FUENTE VAQUEROS"
                },
                {
                        "CMUM": "905",
                        "CPRO": "18",
                        "CUN": "0000000",
                        "DMUN50": "GABIAS (L_S)"
                },
                {
                        "CMUM": "082",
                        "CPRO": "18",
                        "CUN": "0000000",
                        "DMUN50": "GA_ERA"
                },
                {
                        "CMUM": "083",
                        "CPRO": "18",
                        "CUN": "0000000",
                        "DMUN50": "GOBERNADOR"
                },
                {
                        "CMUM": "084",
                        "CPRO": "18",
                        "CUN": "0000000",
                        "DMUN50": "GÓJAR"
                },
                {
                        "CMUM": "085",
                        "CPRO": "18",
                        "CUN": "0000000",
                        "DMUN50": "GO_"
                },
                {
                        "CMUM": "086",
                        "CPRO": "18",
                        "CUN": "0000000",
                        "DMUN50": "GO_AFE"
                },
                {
                        "CMUM": "087",
                        "CPRO": "18",
                        "CUN": "0000000",
                        "DMUN50": "GR_NADA"
                },
                {
                        "CMUM": "088",
                        "CPRO": "18",
                        "CUN": "0000000",
                        "DMUN50": "GUADAH_RTUNA"
                },
                {
                        "CMUM": "089",
                        "CPRO": "18",
                        "CUN": "0000000",
                        "DMUN50": "GUADIX"
                },
                {
                        "CMUM": "906",
                        "CPRO": "18",
                        "CUN": "0000000",
                        "DMUN50": "GUAJARE_ (LOS)"
                },
                {
                        "CMUM": "093",
                        "CPRO": "18",
                        "CUN": "0000000",
                        "DMUN50": "GUALCHOS"
                },
                {
                        "CMUM": "094",
                        "CPRO": "18",
                        "CUN": "0000000",
                        "DMUN50": "GÜEJAR SIERRA"
                },
                {
                        "CMUM": "095",
                        "CPRO": "18",
                        "CUN": "0000000",
                        "DMUN50": "GÜE_ÉJAR"
                },
                {
                        "CMUM": "096",
                        "CPRO": "18",
                        "CUN": "0000000",
                        "DMUN50": "HUÉ_AGO"
                },
                {
                        "CMUM": "097",
                        "CPRO": "18",
                        "CUN": "0000000",
                        "DMUN50": "HU_NEJA"
                },
                {
                        "CMUM": "098",
                        "CPRO": "18",
                        "CUN": "0000000",
                        "DMUN50": "HUÉSCAR_"
                },
                {
                        "CMUM": "099",
                        "CPRO": "18",
                        "CUN": "0000000",
                        "DMUN50": "HUÉTOR DE SANTILLÁN_"
                },
                {
                        "CMUM": "100",
                        "CPRO": "18",
                        "CUN": "0000000",
                        "DMUN50": "HUÉT_R TÁJAR"
                },
                {
                        "CMUM": "101",
                        "CPRO": "18",
                        "CUN": "0000000",
                        "DMUN50": "HU_TOR VEGA"
                },
                {
                        "CMUM": "102",
                        "CPRO": "18",
                        "CUN": "0000000",
                        "DMUN50": "ILLOR_"
                },
                {
                        "CMUM": "103",
                        "CPRO": "18",
                        "CUN": "0000000",
                        "DMUN50": "IT_ABO"
                },
                {
                        "CMUM": "105",
                        "CPRO": "18",
                        "CUN": "0000000",
                        "DMUN50": "IZNALLO_"
                },
                {
                        "CMUM": "106",
                        "CPRO": "18",
                        "CUN": "0000000",
                        "DMUN50": "JÁTAR"
                },
                {
                        "CMUM": "107",
                        "CPRO": "18",
                        "CUN": "0000000",
                        "DMUN50": "JAYENA"
                },
                {
                        "CMUM": "108",
                        "CPRO": "18",
                        "CUN": "0000000",
                        "DMUN50": "JEREZ DEL MARQUESADO"
                },
                {
                        "CMUM": "109",
                        "CPRO": "18",
                        "CUN": "0000000",
                        "DMUN50": "JETE"
                },
                {
                        "CMUM": "111",
                        "CPRO": "18",
                        "CUN": "0000000",
                        "DMUN50": "JU_"
                },
                {
                        "CMUM": "112",
                        "CPRO": "18",
                        "CUN": "0000000",
                        "DMUN50": "JUVILES"
                },
                {
                        "CMUM": "115",
                        "CPRO": "18",
                        "CUN": "0000000",
                        "DMUN50": "L_CHAR"
                },
                {
                        "CMUM": "116",
                        "CPRO": "18",
                        "CUN": "0000000",
                        "DMUN50": "LANJARÓN"
                },
                {
                        "CMUM": "117",
                        "CPRO": "18",
                        "CUN": "0000000",
                        "DMUN50": "LANTEIRA"
                },
                {
                        "CMUM": "119",
                        "CPRO": "18",
                        "CUN": "0000000",
                        "DMUN50": "LE_RÍN"
                },
                {
                        "CMUM": "120",
                        "CPRO": "18",
                        "CUN": "0000000",
                        "DMUN50": "LENTEG_"
                },
                {
                        "CMUM": "121",
                        "CPRO": "18",
                        "CUN": "0000000",
                        "DMUN50": "LOB_AS"
                },
                {
                        "CMUM": "122",
                        "CPRO": "18",
                        "CUN": "0000000",
                        "DMUN50": "LOJA"
                },
                {
                        "CMUM": "123",
                        "CPRO": "18",
                        "CUN": "0000000",
                        "DMUN50": "LUGROS"
                },
                {
                        "CMUM": "124",
                        "CPRO": "18",
                        "CUN": "0000000",
                        "DMUN50": "LÚJ_R"
                },
                {
                        "CMUM": "126",
                        "CPRO": "18",
                        "CUN": "0000000",
                        "DMUN50": "MALAHÁ (LA)"
                },
                {
                        "CMUM": "127",
                        "CPRO": "18",
                        "CUN": "0000000",
                        "DMUN50": "MARACENA"
                },
                {
                        "CMUM": "128",
                        "CPRO": "18",
                        "CUN": "0000000",
                        "DMUN50": "MARC_AL"
                },
                {
                        "CMUM": "132",
                        "CPRO": "18",
                        "CUN": "0000000",
                        "DMUN50": "MO_LÍN"
                },
                {
                        "CMUM": "133",
                        "CPRO": "18",
                        "CUN": "0000000",
                        "DMUN50": "MOLVÍZ_R"
                },
                {
                        "CMUM": "134",
                        "CPRO": "18",
                        "CUN": "0000000",
                        "DMUN50": "MO_ACHIL"
                },
                {
                        "CMUM": "135",
                        "CPRO": "18",
                        "CUN": "0000000",
                        "DMUN50": "MONTE_RÍO"
                },
                {
                        "CMUM": "136",
                        "CPRO": "18",
                        "CUN": "0000000",
                        "DMUN50": "MONT_JÍCAR"
                },
                {
                        "CMUM": "137",
                        "CPRO": "18",
                        "CUN": "0000000",
                        "DMUN50": "MONT_LLANA"
                },
                {
                        "CMUM": "138",
                        "CPRO": "18",
                        "CUN": "0000000",
                        "DMUN50": "MORALE_A DE ZAFAYONA"
                },
                {
                        "CMUM": "909",
                        "CPRO": "18",
                        "CUN": "0000000",
                        "DMUN50": "MORELÁBOR"
                },
                {
                        "CMUM": "140",
                        "CPRO": "18",
                        "CUN": "0000000",
                        "DMUN50": "MO_RIL"
                },
                {
                        "CMUM": "141",
                        "CPRO": "18",
                        "CUN": "0000000",
                        "DMUN50": "MURTAS"
                },
                {
                        "CMUM": "903",
                        "CPRO": "18",
                        "CUN": "0000000",
                        "DMUN50": "NEVADA"
                },
                {
                        "CMUM": "143",
                        "CPRO": "18",
                        "CUN": "0000000",
                        "DMUN50": "NIG_ELAS"
                },
                {
                        "CMUM": "144",
                        "CPRO": "18",
                        "CUN": "0000000",
                        "DMUN50": "NÍVA_"
                },
                {
                        "CMUM": "145",
                        "CPRO": "18",
                        "CUN": "0000000",
                        "DMUN50": "OGÍJARES_"
                },
                {
                        "CMUM": "146",
                        "CPRO": "18",
                        "CUN": "0000000",
                        "DMUN50": "ORCE"
                },
                {
                        "CMUM": "147",
                        "CPRO": "18",
                        "CUN": "0000000",
                        "DMUN50": "ÓR_IVA"
                },
                {
                        "CMUM": "148",
                        "CPRO": "18",
                        "CUN": "0000000",
                        "DMUN50": "OTÍVAR_"
                },
                {
                        "CMUM": "150",
                        "CPRO": "18",
                        "CUN": "0000000",
                        "DMUN50": "PADUL"
                },
                {
                        "CMUM": "151",
                        "CPRO": "18",
                        "CUN": "0000000",
                        "DMUN50": "PAMPANE_RA"
                },
                {
                        "CMUM": "152",
                        "CPRO": "18",
                        "CUN": "0000000",
                        "DMUN50": "PEDRO MA_TÍNEZ"
                },
                {
                        "CMUM": "153",
                        "CPRO": "18",
                        "CUN": "0000000",
                        "DMUN50": "PELI_ROS"
                },
                {
                        "CMUM": "154",
                        "CPRO": "18",
                        "CUN": "0000000",
                        "DMUN50": "PEZA (LA)"
                },
                {
                        "CMUM": "159",
                        "CPRO": "18",
                        "CUN": "0000000",
                        "DMUN50": "P_ÑAR"
                },
                {
                        "CMUM": "910",
                        "CPRO": "18",
                        "CUN": "0000000",
                        "DMUN50": "PINAR (_L)"
                },
                {
                        "CMUM": "157",
                        "CPRO": "18",
                        "CUN": "0000000",
                        "DMUN50": "PINOS G_NIL"
                },
                {
                        "CMUM": "158",
                        "CPRO": "18",
                        "CUN": "0000000",
                        "DMUN50": "PI_OS PUENTE"
                },
                {
                        "CMUM": "161",
                        "CPRO": "18",
                        "CUN": "0000000",
                        "DMUN50": "POLÍCAR"
                },
                {
                        "CMUM": "162",
                        "CPRO": "18",
                        "CUN": "0000000",
                        "DMUN50": "P_LOPOS"
                },
                {
                        "CMUM": "163",
                        "CPRO": "18",
                        "CUN": "0000000",
                        "DMUN50": "PÓRTUGOS"
                },
                {
                        "CMUM": "164",
                        "CPRO": "18",
                        "CUN": "0000000",
                        "DMUN50": "PUEBLA DE DON FADRIQUE"
                },
                {
                        "CMUM": "165",
                        "CPRO": "18",
                        "CUN": "0000000",
                        "DMUN50": "PULIANAS"
                },
                {
                        "CMUM": "167",
                        "CPRO": "18",
                        "CUN": "0000000",
                        "DMUN50": "PURULLENA"
                },
                {
                        "CMUM": "168",
                        "CPRO": "18",
                        "CUN": "0000000",
                        "DMUN50": "QUÉNTAR"
                },
                {
                        "CMUM": "170",
                        "CPRO": "18",
                        "CUN": "0000000",
                        "DMUN50": "RUBITE"
                },
                {
                        "CMUM": "171",
                        "CPRO": "18",
                        "CUN": "0000000",
                        "DMUN50": "SALAR"
                },
                {
                        "CMUM": "173",
                        "CPRO": "18",
                        "CUN": "0000000",
                        "DMUN50": "SALOBREÑA"
                },
                {
                        "CMUM": "174",
                        "CPRO": "18",
                        "CUN": "0000000",
                        "DMUN50": "SANTA _RUZ DEL COMERCIO"
                },
                {
                        "CMUM": "175",
                        "CPRO": "18",
                        "CUN": "0000000",
                        "DMUN50": "SANTA FE"
                },
                {
                        "CMUM": "176",
                        "CPRO": "18",
                        "CUN": "0000000",
                        "DMUN50": "SO_ORTÚJAR"
                },
                {
                        "CMUM": "177",
                        "CPRO": "18",
                        "CUN": "0000000",
                        "DMUN50": "SORVILÁN_"
                },
                {
                        "CMUM": "901",
                        "CPRO": "18",
                        "CUN": "0000000",
                        "DMUN50": "TA_A (LA)"
                },
                {
                        "CMUM": "178",
                        "CPRO": "18",
                        "CUN": "0000000",
                        "DMUN50": "TORR_-CARDELA"
                },
                {
                        "CMUM": "179",
                        "CPRO": "18",
                        "CUN": "0000000",
                        "DMUN50": "TORVIZCÓN"
                },
                {
                        "CMUM": "180",
                        "CPRO": "18",
                        "CUN": "0000000",
                        "DMUN50": "TR_VÉLEZ"
                },
                {
                        "CMUM": "181",
                        "CPRO": "18",
                        "CUN": "0000000",
                        "DMUN50": "TURÓN"
                },
                {
                        "CMUM": "182",
                        "CPRO": "18",
                        "CUN": "0000000",
                        "DMUN50": "UGÍJAR"
                },
                {
                        "CMUM": "914",
                        "CPRO": "18",
                        "CUN": "0000000",
                        "DMUN50": "VALDER_UBIO"
                },
                {
                        "CMUM": "902",
                        "CPRO": "18",
                        "CUN": "0000000",
                        "DMUN50": "V_LLE (EL)"
                },
                {
                        "CMUM": "907",
                        "CPRO": "18",
                        "CUN": "0000000",
                        "DMUN50": "VALLE DEL ZALA_Í"
                },
                {
                        "CMUM": "183",
                        "CPRO": "18",
                        "CUN": "0000000",
                        "DMUN50": "VÁL_R"
                },
                {
                        "CMUM": "911",
                        "CPRO": "18",
                        "CUN": "0000000",
                        "DMUN50": "VEGAS DEL GENIL"
                },
                {
                        "CMUM": "184",
                        "CPRO": "18",
                        "CUN": "0000000",
                        "DMUN50": "VÉLEZ DE BE_AUDALLA"
                },
                {
                        "CMUM": "185",
                        "CPRO": "18",
                        "CUN": "0000000",
                        "DMUN50": "V_NTAS DE HUELMA"
                },
                {
                        "CMUM": "149",
                        "CPRO": "18",
                        "CUN": "0000000",
                        "DMUN50": "VILLA DE OTURA"
                },
                {
                        "CMUM": "908",
                        "CPRO": "18",
                        "CUN": "0000000",
                        "DMUN50": "VILLAMENA"
                },
                {
                        "CMUM": "187",
                        "CPRO": "18",
                        "CUN": "0000000",
                        "DMUN50": "VILLANUEVA D_ LAS TORRES"
                },
                {
                        "CMUM": "188",
                        "CPRO": "18",
                        "CUN": "0000000",
                        "DMUN50": "VILLANUEVA MESÍA"
                },
                {
                        "CMUM": "189",
                        "CPRO": "18",
                        "CUN": "0000000",
                        "DMUN50": "V_ZNAR"
                },
                {
                        "CMUM": "192",
                        "CPRO": "18",
                        "CUN": "0000000",
                        "DMUN50": "ZAFARR_YA"
                },
                {
                        "CMUM": "913",
                        "CPRO": "18",
                        "CUN": "0000000",
                        "DMUN50": "ZAGR_"
                },
                {
                        "CMUM": "193",
                        "CPRO": "18",
                        "CUN": "0000000",
                        "DMUN50": "ZUBIA (LA)"
                },
                {
                        "CMUM": "194",
                        "CPRO": "18",
                        "CUN": "0000000",
                        "DMUN50": "ZÚJAR"
                }
]